


{
 "resultCount":10,
 "results": [
{"wrapperType":"track", "kind":"podcast", "artistId":954021325, "collectionId":1440215666, "trackId":1440215666, "artistName":"VICE", "collectionName":"Chapo", "trackName":"Chapo", "collectionCensoredName":"Chapo", "trackCensoredName":"Chapo", "artistViewUrl":"https://podcasts.apple.com/us/artist/vice/954021325?uo=4", "collectionViewUrl":"https://podcasts.apple.com/us/podcast/chapo/id1440215666?uo=4", "feedUrl":"https://feeds.acast.com/public/shows/7540dfb3-3c5f-43ae-91d3-aad22b2ede46", "trackViewUrl":"https://podcasts.apple.com/us/podcast/chapo/id1440215666?uo=4", "artworkUrl30":"https://is1-ssl.mzstatic.com/image/thumb/Podcasts116/v4/58/9b/8d/589b8d72-13aa-55cb-463f-ad41096ca9ea/mza_560982554884614556.jpg/30x30bb.jpg", "artworkUrl60":"https://is1-ssl.mzstatic.com/image/thumb/Podcasts116/v4/58/9b/8d/589b8d72-13aa-55cb-463f-ad41096ca9ea/mza_560982554884614556.jpg/60x60bb.jpg", "artworkUrl100":"https://is1-ssl.mzstatic.com/image/thumb/Podcasts116/v4/58/9b/8d/589b8d72-13aa-55cb-463f-ad41096ca9ea/mza_560982554884614556.jpg/100x100bb.jpg", "collectionPrice":0.00, "trackPrice":0.00, "collectionHdPrice":0, "releaseDate":"2023-01-25T05:01:00Z", "collectionExplicitness":"notExplicit", "trackExplicitness":"cleaned", "trackCount":17, "trackTimeMillis":2464, "country":"USA", "currency":"USD", "primaryGenreName":"News", "contentAdvisoryRating":"Clean", "artworkUrl600":"https://is1-ssl.mzstatic.com/image/thumb/Podcasts116/v4/58/9b/8d/589b8d72-13aa-55cb-463f-ad41096ca9ea/mza_560982554884614556.jpg/600x600bb.jpg", "genreIds":["1489", "26"], "genres":["News", "Podcasts"]}, 
{"wrapperType":"track", "kind":"podcast", "collectionId":1097417804, "trackId":1097417804, "artistName":"Chapo Trap House", "collectionName":"Chapo Trap House", "trackName":"Chapo Trap House", "collectionCensoredName":"Chapo Trap House", "trackCensoredName":"Chapo Trap House", "collectionViewUrl":"https://podcasts.apple.com/us/podcast/chapo-trap-house/id1097417804?uo=4", "feedUrl":"https://feeds.soundcloud.com/users/soundcloud:users:211911700/sounds.rss", "trackViewUrl":"https://podcasts.apple.com/us/podcast/chapo-trap-house/id1097417804?uo=4", "artworkUrl30":"https://is1-ssl.mzstatic.com/image/thumb/Podcasts18/v4/37/d9/a0/37d9a0b4-64f8-70d4-722e-b3a8772f3424/mza_5335192259855381405.jpg/30x30bb.jpg", "artworkUrl60":"https://is1-ssl.mzstatic.com/image/thumb/Podcasts18/v4/37/d9/a0/37d9a0b4-64f8-70d4-722e-b3a8772f3424/mza_5335192259855381405.jpg/60x60bb.jpg", "artworkUrl100":"https://is1-ssl.mzstatic.com/image/thumb/Podcasts18/v4/37/d9/a0/37d9a0b4-64f8-70d4-722e-b3a8772f3424/mza_5335192259855381405.jpg/100x100bb.jpg", "collectionPrice":0.00, "trackPrice":0.00, "collectionHdPrice":0, "releaseDate":"2024-03-05T20:55:00Z", "collectionExplicitness":"notExplicit", "trackExplicitness":"explicit", "trackCount":507, "trackTimeMillis":3315, "country":"USA", "currency":"USD", "primaryGenreName":"News", "contentAdvisoryRating":"Explicit", "artworkUrl600":"https://is1-ssl.mzstatic.com/image/thumb/Podcasts18/v4/37/d9/a0/37d9a0b4-64f8-70d4-722e-b3a8772f3424/mza_5335192259855381405.jpg/600x600bb.jpg", "genreIds":["1489", "26"], "genres":["News", "Podcasts"]}, 
{"wrapperType":"track", "kind":"podcast", "artistId":1216352023, "collectionId":1522699497, "trackId":1522699497, "artistName":"CNN en Español", "collectionName":"El Chapo: Dos rostros de un capo Podcast", "trackName":"El Chapo: Dos rostros de un capo Podcast", "collectionCensoredName":"El Chapo: Dos rostros de un capo Podcast", "trackCensoredName":"El Chapo: Dos rostros de un capo Podcast", "artistViewUrl":"https://podcasts.apple.com/us/artist/cnn-en-espa%C3%B1ol/1216352023?uo=4", "collectionViewUrl":"https://podcasts.apple.com/us/podcast/el-chapo-dos-rostros-de-un-capo-podcast/id1522699497?uo=4", "feedUrl":"https://feeds.megaphone.fm/WMHY2717952910", "trackViewUrl":"https://podcasts.apple.com/us/podcast/el-chapo-dos-rostros-de-un-capo-podcast/id1522699497?uo=4", "artworkUrl30":"https://is1-ssl.mzstatic.com/image/thumb/Podcasts122/v4/31/e9/bb/31e9bb57-31f8-447d-e619-bf94e2ee42af/mza_7685287012963567517.jpg/30x30bb.jpg", "artworkUrl60":"https://is1-ssl.mzstatic.com/image/thumb/Podcasts122/v4/31/e9/bb/31e9bb57-31f8-447d-e619-bf94e2ee42af/mza_7685287012963567517.jpg/60x60bb.jpg", "artworkUrl100":"https://is1-ssl.mzstatic.com/image/thumb/Podcasts122/v4/31/e9/bb/31e9bb57-31f8-447d-e619-bf94e2ee42af/mza_7685287012963567517.jpg/100x100bb.jpg", "collectionPrice":0.00, "trackPrice":0.00, "collectionHdPrice":0, "releaseDate":"2020-07-15T09:10:00Z", "collectionExplicitness":"notExplicit", "trackExplicitness":"cleaned", "trackCount":7, "trackTimeMillis":968, "country":"USA", "currency":"USD", "primaryGenreName":"True Crime", "contentAdvisoryRating":"Clean", "artworkUrl600":"https://is1-ssl.mzstatic.com/image/thumb/Podcasts122/v4/31/e9/bb/31e9bb57-31f8-447d-e619-bf94e2ee42af/mza_7685287012963567517.jpg/600x600bb.jpg", "genreIds":["1488", "26"], "genres":["True Crime", "Podcasts"]}, 
{"wrapperType":"track", "kind":"podcast", "collectionId":1525269951, "trackId":1525269951, "artistName":"Jackson Jacker", "collectionName":"CushVlogs Audio - Matt Christman - Chapo Trap House", "trackName":"CushVlogs Audio - Matt Christman - Chapo Trap House", "collectionCensoredName":"CushVlogs Audio - Matt Christman - Chapo Trap House", "trackCensoredName":"CushVlogs Audio - Matt Christman - Chapo Trap House", "collectionViewUrl":"https://podcasts.apple.com/us/podcast/cushvlogs-audio-matt-christman-chapo-trap-house/id1525269951?uo=4", "feedUrl":"https://anchor.fm/s/19346b24/podcast/rss", "trackViewUrl":"https://podcasts.apple.com/us/podcast/cushvlogs-audio-matt-christman-chapo-trap-house/id1525269951?uo=4", "artworkUrl30":"https://is1-ssl.mzstatic.com/image/thumb/Podcasts124/v4/74/41/7c/74417c8a-151f-5090-5460-fe5e7ca0e671/mza_7528059777000521713.jpg/30x30bb.jpg", "artworkUrl60":"https://is1-ssl.mzstatic.com/image/thumb/Podcasts124/v4/74/41/7c/74417c8a-151f-5090-5460-fe5e7ca0e671/mza_7528059777000521713.jpg/60x60bb.jpg", "artworkUrl100":"https://is1-ssl.mzstatic.com/image/thumb/Podcasts124/v4/74/41/7c/74417c8a-151f-5090-5460-fe5e7ca0e671/mza_7528059777000521713.jpg/100x100bb.jpg", "collectionPrice":0.00, "trackPrice":0.00, "collectionHdPrice":0, "releaseDate":"2021-06-08T04:56:00Z", "collectionExplicitness":"notExplicit", "trackExplicitness":"cleaned", "trackCount":167, "trackTimeMillis":4052, "country":"USA", "currency":"USD", "primaryGenreName":"Spirituality", "contentAdvisoryRating":"Clean", "artworkUrl600":"https://is1-ssl.mzstatic.com/image/thumb/Podcasts124/v4/74/41/7c/74417c8a-151f-5090-5460-fe5e7ca0e671/mza_7528059777000521713.jpg/600x600bb.jpg", "genreIds":["1444", "26", "1314"], "genres":["Spirituality", "Podcasts", "Religion & Spirituality"]}, 
{"wrapperType":"track", "kind":"podcast", "artistId":1253698124, "collectionId":1232055341, "trackId":1232055341, "artistName":"Univision", "collectionName":"‘El Chapo’: ¿héroe o villano?", "trackName":"‘El Chapo’: ¿héroe o villano?", "collectionCensoredName":"‘El Chapo’: ¿héroe o villano?", "trackCensoredName":"‘El Chapo’: ¿héroe o villano?", "artistViewUrl":"https://podcasts.apple.com/us/artist/univision/1253698124?uo=4", "collectionViewUrl":"https://podcasts.apple.com/us/podcast/el-chapo-h%C3%A9roe-o-villano/id1232055341?uo=4", "feedUrl":"https://audioboom.com/channels/4905580.rss", "trackViewUrl":"https://podcasts.apple.com/us/podcast/el-chapo-h%C3%A9roe-o-villano/id1232055341?uo=4", "artworkUrl30":"https://is1-ssl.mzstatic.com/image/thumb/Podcasts116/v4/57/34/8e/57348e38-6c9a-7579-8269-42e61786ae3b/mza_17242328811639650011.jpg/30x30bb.jpg", "artworkUrl60":"https://is1-ssl.mzstatic.com/image/thumb/Podcasts116/v4/57/34/8e/57348e38-6c9a-7579-8269-42e61786ae3b/mza_17242328811639650011.jpg/60x60bb.jpg", "artworkUrl100":"https://is1-ssl.mzstatic.com/image/thumb/Podcasts116/v4/57/34/8e/57348e38-6c9a-7579-8269-42e61786ae3b/mza_17242328811639650011.jpg/100x100bb.jpg", "collectionPrice":0.00, "trackPrice":0.00, "collectionHdPrice":0, "releaseDate":"2017-05-23T00:59:00Z", "collectionExplicitness":"notExplicit", "trackExplicitness":"cleaned", "trackCount":4, "trackTimeMillis":1483, "country":"USA", "currency":"USD", "primaryGenreName":"TV & Film", "contentAdvisoryRating":"Clean", "artworkUrl600":"https://is1-ssl.mzstatic.com/image/thumb/Podcasts116/v4/57/34/8e/57348e38-6c9a-7579-8269-42e61786ae3b/mza_17242328811639650011.jpg/600x600bb.jpg", "genreIds":["1309", "26"], "genres":["TV & Film", "Podcasts"]}, 
{"wrapperType":"track", "kind":"podcast", "collectionId":1567804176, "trackId":1567804176, "artistName":"Jack Gold", "collectionName":"Chapo", "trackName":"Chapo", "collectionCensoredName":"Chapo", "trackCensoredName":"Chapo", "collectionViewUrl":"https://podcasts.apple.com/us/podcast/chapo/id1567804176?uo=4", "feedUrl":"https://anchor.fm/s/5b423b40/podcast/rss", "trackViewUrl":"https://podcasts.apple.com/us/podcast/chapo/id1567804176?uo=4", "artworkUrl30":"https://is1-ssl.mzstatic.com/image/thumb/Podcasts125/v4/43/67/d3/4367d309-707e-6b7e-390a-202565c1d530/mza_9950196886709505935.jpg/30x30bb.jpg", "artworkUrl60":"https://is1-ssl.mzstatic.com/image/thumb/Podcasts125/v4/43/67/d3/4367d309-707e-6b7e-390a-202565c1d530/mza_9950196886709505935.jpg/60x60bb.jpg", "artworkUrl100":"https://is1-ssl.mzstatic.com/image/thumb/Podcasts125/v4/43/67/d3/4367d309-707e-6b7e-390a-202565c1d530/mza_9950196886709505935.jpg/100x100bb.jpg", "collectionPrice":0.00, "trackPrice":0.00, "collectionHdPrice":0, "releaseDate":"2021-05-15T05:32:00Z", "collectionExplicitness":"notExplicit", "trackExplicitness":"cleaned", "trackCount":1, "trackTimeMillis":135, "country":"USA", "currency":"USD", "primaryGenreName":"Performing Arts", "contentAdvisoryRating":"Clean", "artworkUrl600":"https://is1-ssl.mzstatic.com/image/thumb/Podcasts125/v4/43/67/d3/4367d309-707e-6b7e-390a-202565c1d530/mza_9950196886709505935.jpg/600x600bb.jpg", "genreIds":["1405", "26", "1301"], "genres":["Performing Arts", "Podcasts", "Arts"]}, 
{"wrapperType":"track", "kind":"podcast", "collectionId":1510491714, "trackId":1510491714, "artistName":"Mijo 713", "collectionName":"Chapo", "trackName":"Chapo", "collectionCensoredName":"Chapo", "trackCensoredName":"Chapo", "collectionViewUrl":"https://podcasts.apple.com/us/podcast/chapo/id1510491714?uo=4", "feedUrl":"https://anchor.fm/s/1e56647c/podcast/rss", "trackViewUrl":"https://podcasts.apple.com/us/podcast/chapo/id1510491714?uo=4", "artworkUrl30":"https://is1-ssl.mzstatic.com/image/thumb/Podcasts123/v4/b5/7c/41/b57c410f-8b2f-d9ce-df76-44b5947ea261/mza_17707437198336862.jpg/30x30bb.jpg", "artworkUrl60":"https://is1-ssl.mzstatic.com/image/thumb/Podcasts123/v4/b5/7c/41/b57c410f-8b2f-d9ce-df76-44b5947ea261/mza_17707437198336862.jpg/60x60bb.jpg", "artworkUrl100":"https://is1-ssl.mzstatic.com/image/thumb/Podcasts123/v4/b5/7c/41/b57c410f-8b2f-d9ce-df76-44b5947ea261/mza_17707437198336862.jpg/100x100bb.jpg", "collectionPrice":0.00, "trackPrice":0.00, "collectionHdPrice":0, "releaseDate":"2020-04-25T19:46:00Z", "collectionExplicitness":"notExplicit", "trackExplicitness":"cleaned", "trackCount":1, "trackTimeMillis":35, "country":"USA", "currency":"USD", "primaryGenreName":"Government", "contentAdvisoryRating":"Clean", "artworkUrl600":"https://is1-ssl.mzstatic.com/image/thumb/Podcasts123/v4/b5/7c/41/b57c410f-8b2f-d9ce-df76-44b5947ea261/mza_17707437198336862.jpg/600x600bb.jpg", "genreIds":["1511", "26"], "genres":["Government", "Podcasts"]}, 
{"wrapperType":"track", "kind":"podcast", "collectionId":1649359487, "trackId":1649359487, "artistName":"iHeartPodcasts", "collectionName":"Surviving El Chapo: The Twins Who Brought Down A Drug Lord", "trackName":"Surviving El Chapo: The Twins Who Brought Down A Drug Lord", "collectionCensoredName":"Surviving El Chapo: The Twins Who Brought Down A Drug Lord", "trackCensoredName":"Surviving El Chapo: The Twins Who Brought Down A Drug Lord", "collectionViewUrl":"https://podcasts.apple.com/us/podcast/surviving-el-chapo-the-twins-who-brought-down-a-drug-lord/id1649359487?uo=4", 
"feedUrl":"https://www.omnycontent.com/d/playlist/e73c998e-6e60-432f-8610-ae210140c5b1/a6b57093-81fe-4401-a963-af2000fe4e3a/56b7926c-6bfd-4d8c-81f9-af2000ffad49/podcast.rss", "trackViewUrl":"https://podcasts.apple.com/us/podcast/surviving-el-chapo-the-twins-who-brought-down-a-drug-lord/id1649359487?uo=4", "artworkUrl30":"https://is1-ssl.mzstatic.com/image/thumb/Podcasts116/v4/aa/90/0f/aa900f15-7a67-e498-7b8c-a8efc9a667b5/mza_18039635476170983620.jpg/30x30bb.jpg", "artworkUrl60":"https://is1-ssl.mzstatic.com/image/thumb/Podcasts116/v4/aa/90/0f/aa900f15-7a67-e498-7b8c-a8efc9a667b5/mza_18039635476170983620.jpg/60x60bb.jpg", "artworkUrl100":"https://is1-ssl.mzstatic.com/image/thumb/Podcasts116/v4/aa/90/0f/aa900f15-7a67-e498-7b8c-a8efc9a667b5/mza_18039635476170983620.jpg/100x100bb.jpg", "collectionPrice":0.00, "trackPrice":0.00, "collectionHdPrice":0, "releaseDate":"2023-12-06T08:00:00Z", "collectionExplicitness":"notExplicit", "trackExplicitness":"explicit", "trackCount":26, "trackTimeMillis":3418, "country":"USA", "currency":"USD", "primaryGenreName":"Documentary", "contentAdvisoryRating":"Explicit", "artworkUrl600":"https://is1-ssl.mzstatic.com/image/thumb/Podcasts116/v4/aa/90/0f/aa900f15-7a67-e498-7b8c-a8efc9a667b5/mza_18039635476170983620.jpg/600x600bb.jpg", "genreIds":["1543", "26", "1324", "1488"], "genres":["Documentary", "Podcasts", "Society & Culture", "True Crime"]}, 
{"wrapperType":"track", "kind":"podcast", "collectionId":1380498912, "trackId":1380498912, "artistName":"Chapo", "collectionName":"CHAPOS Corner", "trackName":"CHAPOS Corner", "collectionCensoredName":"CHAPOS Corner", "trackCensoredName":"CHAPOS Corner", "collectionViewUrl":"https://podcasts.apple.com/us/podcast/chapos-corner/id1380498912?uo=4", "feedUrl":"https://anchor.fm/s/3a15ad8/podcast/rss", "trackViewUrl":"https://podcasts.apple.com/us/podcast/chapos-corner/id1380498912?uo=4", "artworkUrl30":"https://is1-ssl.mzstatic.com/image/thumb/Podcasts125/v4/a5/08/da/a508da5c-09c7-bc4d-3c2d-938bf406b36b/mza_14501171467539691063.jpg/30x30bb.jpg", "artworkUrl60":"https://is1-ssl.mzstatic.com/image/thumb/Podcasts125/v4/a5/08/da/a508da5c-09c7-bc4d-3c2d-938bf406b36b/mza_14501171467539691063.jpg/60x60bb.jpg", "artworkUrl100":"https://is1-ssl.mzstatic.com/image/thumb/Podcasts125/v4/a5/08/da/a508da5c-09c7-bc4d-3c2d-938bf406b36b/mza_14501171467539691063.jpg/100x100bb.jpg", "collectionPrice":0.00, "trackPrice":0.00, "collectionHdPrice":0, "releaseDate":"2022-10-19T00:24:00Z", "collectionExplicitness":"notExplicit", "trackExplicitness":"cleaned", "trackCount":704, "trackTimeMillis":2226, "country":"USA", "currency":"USD", "primaryGenreName":"Society & Culture", "contentAdvisoryRating":"Clean", "artworkUrl600":"https://is1-ssl.mzstatic.com/image/thumb/Podcasts125/v4/a5/08/da/a508da5c-09c7-bc4d-3c2d-938bf406b36b/mza_14501171467539691063.jpg/600x600bb.jpg", "genreIds":["1324", "26"], "genres":["Society & Culture", "Podcasts"]}, 
{"wrapperType":"track", "kind":"podcast", "collectionId":1571776758, "trackId":1571776758, "artistName":"Bernardo", "collectionName":"EL CHAPO", "trackName":"EL CHAPO", "collectionCensoredName":"EL CHAPO", "trackCensoredName":"EL CHAPO", "collectionViewUrl":"https://podcasts.apple.com/us/podcast/el-chapo/id1571776758?uo=4", "feedUrl":"https://anchor.fm/s/5d83aab0/podcast/rss", "trackViewUrl":"https://podcasts.apple.com/us/podcast/el-chapo/id1571776758?uo=4", "artworkUrl30":"https://is1-ssl.mzstatic.com/image/thumb/Podcasts115/v4/df/3b/2c/df3b2cbc-a8ac-315b-d5db-56d055690dfc/mza_8387652467730745876.jpg/30x30bb.jpg", "artworkUrl60":"https://is1-ssl.mzstatic.com/image/thumb/Podcasts115/v4/df/3b/2c/df3b2cbc-a8ac-315b-d5db-56d055690dfc/mza_8387652467730745876.jpg/60x60bb.jpg", "artworkUrl100":"https://is1-ssl.mzstatic.com/image/thumb/Podcasts115/v4/df/3b/2c/df3b2cbc-a8ac-315b-d5db-56d055690dfc/mza_8387652467730745876.jpg/100x100bb.jpg", "collectionPrice":0.00, "trackPrice":0.00, "collectionHdPrice":0, "releaseDate":"2021-06-22T21:50:00Z", "collectionExplicitness":"notExplicit", "trackExplicitness":"cleaned", "trackCount":10, "trackTimeMillis":236, "country":"USA", "currency":"USD", "primaryGenreName":"History", "contentAdvisoryRating":"Clean", "artworkUrl600":"https://is1-ssl.mzstatic.com/image/thumb/Podcasts115/v4/df/3b/2c/df3b2cbc-a8ac-315b-d5db-56d055690dfc/mza_8387652467730745876.jpg/600x600bb.jpg", "genreIds":["1487", "26"], "genres":["History", "Podcasts"]}]
}


